{
    "name": "Oculus.VR.Editor",
    "references": [
        "Oculus.VR"
    ],
    "optionalUnityReferences": [],
    "includePlatforms": [
        "Editor"
    ],
    "excludePlatforms": [],
    "allowUnsafeCode": false,
    "versionDefines": [
        {
            "name": "com.unity.xr.management",
            "expression": "",
            "define": "USING_XR_SDK"
        }
    ]
}