%YAML 1.1
%TAG !u! tag:unity3d.com,2011:
--- !u!1045 &1
EditorBuildSettings:
  m_ObjectHideFlags: 0
  serializedVersion: 2
  m_Scenes:
  - enabled: 1
    path: Assets/Scenes/Menu.unity
    guid: 8698dcf16cf38f24b9b18fe97be1be98
  - enabled: 1
    path: Assets/Scenes/Game.unity
    guid: 67f7330e3047e19469dc77b82c3ec9fc
  - enabled: 1
    path: Assets/Scenes/EndGame.unity
    guid: 78f9cafae277c5441bb1ceb962964344
  - enabled: 1
    path: Assets/Scenes/End.unity
    guid: 90c705d8b622355459b73b6e52c94948
  m_configObjects: {}
